Salivary and serum immunoassay comparison: Untitled
…
# n_nonmissing(marc$lh_surge_date)
# n_nonmissing(marc$lh_surge_date_2)
table(marc$lh_surge_date == marc$lh_surge_date_2, exclude=NULL)

FALSE  TRUE  <NA> 
   76   697  1492 

marc %>% filter(lh_surge_date != lh_surge_date_2) %>% select(ID, lh_surge_date, lh_surge_date_2, date, Meetings.x)

filter (grouped): removed 2,189 rows (97%), 76 rows remaining

select: dropped 21 variables (batch.x, data.x, estradiol, batch.y, data.y, …)

# A tibble: 76 × 5
# Groups:   ID [3]
      ID lh_surge_date lh_surge_date_2 date       Meetings.x
   <dbl> <date>        <date>          <date>     <chr>     
 1    37 2015-11-10    2015-11-12      2015-11-05 <NA>      
 2    37 2015-11-10    2015-11-12      2015-11-06 <NA>      
 3    37 2015-11-10    2015-11-12      2015-11-07 <NA>      
 4    37 2015-11-10    2015-11-12      2015-11-08 <NA>      
 5    37 2015-11-10    2015-11-12      2015-11-09 S1        
 6    37 2015-11-10    2015-11-12      2015-11-10 <NA>      
 7    37 2015-11-10    2015-11-12      2015-11-11 <NA>      
 8    37 2015-11-10    2015-11-12      2015-11-12 O         
 9    37 2015-11-10    2015-11-12      2015-11-13 S2        
10    37 2015-11-10    2015-11-12      2015-11-14 <NA>      
# … with 66 more rows
…
