Salivary and serum immunoassay comparison: Figures and Tables
…
rename: renamed one variable (cycle_phase)

mutate: changed 3 values (6%) of 'Hormone' (0 new NA)

mutate: no changes

Show code

imps %>% 
  filter(Hormone == "Estradiol", Dataset != "BioCycle") %>% 
  arrange(desc(estimate))

filter: removed 27 rows (56%), 21 rows remaining

# A tibble: 21 × 6
   Hormone   Dataset          cycle_phase estimate conf.low conf.high
   <chr>     <fct>            <chr>          <dbl>    <dbl>     <dbl>
 1 Estradiol Marcinkowska '20 bc              0.27     0.21      0.33
 2 Estradiol Roney '13        fc              0.23     0.17      0.29
 3 Estradiol Marcinkowska '20 fc              0.22     0.16      0.28
 4 Estradiol Marcinkowska '20 lh              0.22     0.16      0.29
 5 Estradiol OCMATE           bc              0.22     0.14      0.3 
 6 Estradiol Roney '13        bc              0.21     0.14      0.28
 7 Estradiol Jünger '18       fc              0.2      0.04      0.35
 8 Estradiol Jünger '18       bc              0.18     0.05      0.31
 9 Estradiol OCMATE           fc              0.15     0.1       0.19
10 Estradiol Stern '21        lh              0.1      0         0.2 
# … with 11 more rows
…
